%YAML 1.1
%TAG !u! tag:unity3d.com,2011:
--- !u!1 &4187941820409966834
GameObject:
  m_ObjectHideFlags: 0
  m_CorrespondingSourceObject: {fileID: 0}
  m_PrefabInstance: {fileID: 0}
  m_PrefabAsset: {fileID: 0}
  serializedVersion: 6
  m_Component:
  - component: {fileID: 1018428533622625020}
  - component: {fileID: 3572764393545759465}
  m_Layer: 0
  m_Name: '[LevelManager]'
  m_TagString: Untagged
  m_Icon: {fileID: 0}
  m_NavMeshLayer: 0
  m_StaticEditorFlags: 0
  m_IsActive: 1
--- !u!4 &1018428533622625020
Transform:
  m_ObjectHideFlags: 0
  m_CorrespondingSourceObject: {fileID: 0}
  m_PrefabInstance: {fileID: 0}
  m_PrefabAsset: {fileID: 0}
  m_GameObject: {fileID: 4187941820409966834}
  m_LocalRotation: {x: 0, y: 0, z: 0, w: 1}
  m_LocalPosition: {x: 0, y: 0, z: 0}
  m_LocalScale: {x: 1, y: 1, z: 1}
  m_Children:
  - {fileID: 6102338663858457547}
  m_Father: {fileID: 0}
  m_RootOrder: 0
  m_LocalEulerAnglesHint: {x: 0, y: 0, z: 0}
--- !u!114 &3572764393545759465
MonoBehaviour:
  m_ObjectHideFlags: 0
  m_CorrespondingSourceObject: {fileID: 0}
  m_PrefabInstance: {fileID: 0}
  m_PrefabAsset: {fileID: 0}
  m_GameObject: {fileID: 4187941820409966834}
  m_Enabled: 1
  m_EditorHideFlags: 0
  m_Script: {fileID: 11500000, guid: e9aac1c35250249c9926ed12fbdd56ea, type: 3}
  m_Name: 
  m_EditorClassIdentifier: 
  I_TresorCollected: 0
  I_OresCollected: 0
  I_Solidity: 100
  I_BlocDestroyed: 0
  I_TresorGoal: 0
  I_ToolType: 3
  I_NumberTresor_Array: 
  I_NumberOre_Array: 
  recapPanel: {fileID: 0}
  B_DisableInteraction: 0
  B_LevelEnd: 0
  Go_Tool: {fileID: 5070849635466402712}
  V2_DummyTool: {x: 0, y: 0}
--- !u!1001 &5961938227014623242
PrefabInstance:
  m_ObjectHideFlags: 0
  serializedVersion: 2
  m_Modification:
    m_TransformParent: {fileID: 1018428533622625020}
    m_Modifications:
    - target: {fileID: 437644747296549825, guid: 80b47cc3200b04f938dec7e4b25c628c,
        type: 3}
      propertyPath: m_LocalPosition.x
      value: 0
      objectReference: {fileID: 0}
    - target: {fileID: 437644747296549825, guid: 80b47cc3200b04f938dec7e4b25c628c,
        type: 3}
      propertyPath: m_LocalPosition.y
      value: 0
      objectReference: {fileID: 0}
    - target: {fileID: 437644747296549825, guid: 80b47cc3200b04f938dec7e4b25c628c,
        type: 3}
      propertyPath: m_LocalPosition.z
      value: 0
      objectReference: {fileID: 0}
    - target: {fileID: 437644747296549825, guid: 80b47cc3200b04f938dec7e4b25c628c,
        type: 3}
      propertyPath: m_LocalRotation.x
      value: 0
      objectReference: {fileID: 0}
    - target: {fileID: 437644747296549825, guid: 80b47cc3200b04f938dec7e4b25c628c,
        type: 3}
      propertyPath: m_LocalRotation.y
      value: 0
      objectReference: {fileID: 0}
    - target: {fileID: 437644747296549825, guid: 80b47cc3200b04f938dec7e4b25c628c,
        type: 3}
      propertyPath: m_LocalRotation.z
      value: 0
      objectReference: {fileID: 0}
    - target: {fileID: 437644747296549825, guid: 80b47cc3200b04f938dec7e4b25c628c,
        type: 3}
      propertyPath: m_LocalRotation.w
      value: 1
      objectReference: {fileID: 0}
    - target: {fileID: 437644747296549825, guid: 80b47cc3200b04f938dec7e4b25c628c,
        type: 3}
      propertyPath: m_RootOrder
      value: 0
      objectReference: {fileID: 0}
    - target: {fileID: 437644747296549825, guid: 80b47cc3200b04f938dec7e4b25c628c,
        type: 3}
      propertyPath: m_LocalEulerAnglesHint.x
      value: 0
      objectReference: {fileID: 0}
    - target: {fileID: 437644747296549825, guid: 80b47cc3200b04f938dec7e4b25c628c,
        type: 3}
      propertyPath: m_LocalEulerAnglesHint.y
      value: 0
      objectReference: {fileID: 0}
    - target: {fileID: 437644747296549825, guid: 80b47cc3200b04f938dec7e4b25c628c,
        type: 3}
      propertyPath: m_LocalEulerAnglesHint.z
      value: 0
      objectReference: {fileID: 0}
    - target: {fileID: 1504846429055859602, guid: 80b47cc3200b04f938dec7e4b25c628c,
        type: 3}
      propertyPath: m_Name
      value: P_ToolAnimation
      objectReference: {fileID: 0}
    - target: {fileID: 1504846429055859602, guid: 80b47cc3200b04f938dec7e4b25c628c,
        type: 3}
      propertyPath: m_IsActive
      value: 1
      objectReference: {fileID: 0}
    m_RemovedComponents: []
  m_SourcePrefab: {fileID: 100100000, guid: 80b47cc3200b04f938dec7e4b25c628c, type: 3}
--- !u!1 &5070849635466402712 stripped
GameObject:
  m_CorrespondingSourceObject: {fileID: 1504846429055859602, guid: 80b47cc3200b04f938dec7e4b25c628c,
    type: 3}
  m_PrefabInstance: {fileID: 5961938227014623242}
  m_PrefabAsset: {fileID: 0}
--- !u!4 &6102338663858457547 stripped
Transform:
  m_CorrespondingSourceObject: {fileID: 437644747296549825, guid: 80b47cc3200b04f938dec7e4b25c628c,
    type: 3}
  m_PrefabInstance: {fileID: 5961938227014623242}
  m_PrefabAsset: {fileID: 0}
